R for Audit Analytics
…
ends_with('ABC') will select all columns the names of which ends with string ABC

contains('ABC') will select all columns the names of which contains string ABC

num_range('A', 1:3) will select all columns named A1, A2 and A3

Some Examples.

This syntax will select all columns which ends with "color" in column names.

starwars %>% 
  select(ends_with('color'))

## # A tibble: 87 × 3
##    hair_color    skin_color  eye_color
##    <chr>         <chr>       <chr>    
##  1 blond         fair        blue     
##  2 <NA>          gold        yellow   
##  3 <NA>          white, blue red      
##  4 none          white       yellow   
##  5 brown         light       brown    
##  6 brown, grey   light       blue     
##  7 brown         light       blue     
##  8 <NA>          white, red  red      
##  9 black         light       brown    
## 10 auburn, white fair        blue-gray
## # ℹ 77 more rows

Example-2: This syntax will select all columns contains characters "or" in column names.

starwars %>% 
  select(contains('or'))

## # A tibble: 87 × 4
##    hair_color    skin_color  eye_color homeworld
##    <chr>         <chr>       <chr>     <chr>    
##  1 blond         fair        blue      Tatooine 
##  2 <NA>          gold        yellow    Tatooine 
##  3 <NA>          white, blue red       Naboo    
##  4 none          white       yellow    Tatooine 
##  5 brown         light       brown     Alderaan 
##  6 brown, grey   light       blue      Tatooine 
##  7 brown         light       blue      Tatooine 
##  8 <NA>          white, red  red       Tatooine 
##  9 black         light       brown     Tatooine 
## 10 auburn, white fair        blue-gray Stewjon  
## # ℹ 77 more rows

Using where(): This selection helper selects the variables for which a function when applied to column names, returns TRUE.

Example-3: This syntax will select all numeric columns from the dataset.

starwars %>% 
  select(where(is.numeric))

## # A tibble: 87 × 3
##    height  mass birth_year
##     <int> <dbl>      <dbl>
##  1    172    77       19  
##  2    167    75      112  
##  3     96    32       33  
##  4    202   136       41.9
##  5    150    49       19  
##  6    178   120       52  
##  7    165    75       47  
##  8     97    32       NA  
##  9    183    84       24  
## 10    182    77       57  
## # ℹ 77 more rows
…
(#fig:mutater)Illustration of dplyr::mutate()

More than one column can be added simultaneously. Newly created column may also be used for creation of another new column. See example.

starwars %>% 
  select(name:mass) %>% 
  mutate(name_upper = toupper(name),
         BMI = mass/(height/100)^2)

## # A tibble: 87 × 5
##    name               height  mass name_upper           BMI
##    <chr>               <int> <dbl> <chr>              <dbl>
##  1 Luke Skywalker        172    77 LUKE SKYWALKER      26.0
##  2 C-3PO                 167    75 C-3PO               26.9
##  3 R2-D2                  96    32 R2-D2               34.7
##  4 Darth Vader           202   136 DARTH VADER         33.3
##  5 Leia Organa           150    49 LEIA ORGANA         21.8
##  6 Owen Lars             178   120 OWEN LARS           37.9
##  7 Beru Whitesun Lars    165    75 BERU WHITESUN LARS  27.5
##  8 R5-D4                  97    32 R5-D4               34.0
##  9 Biggs Darklighter     183    84 BIGGS DARKLIGHTER   25.1
## 10 Obi-Wan Kenobi        182    77 OBI-WAN KENOBI      23.2
## # ℹ 77 more rows

By default the new column will be added to the last of data frame. As shown in above example, more operations can be combined in one using %>%. There is a cousin transmute() of mutate which drops all the old columns and keeps only newly created columns. Example

starwars %>% 
  transmute(name_upper = toupper(name))

## # A tibble: 87 × 1
##    name_upper        
##    <chr>             
##  1 LUKE SKYWALKER    
##  2 C-3PO             
##  3 R2-D2             
##  4 DARTH VADER       
##  5 LEIA ORGANA       
##  6 OWEN LARS         
##  7 BERU WHITESUN LARS
##  8 R5-D4             
##  9 BIGGS DARKLIGHTER 
## 10 OBI-WAN KENOBI    
## # ℹ 77 more rows
…
(#fig:groupby)Illustration of Grouped Operations in dplyr

Note the output of this simple example

starwars %>% 
  group_by(sex)

## # A tibble: 87 × 14
## # Groups:   sex [5]
##    name     height  mass hair_color skin_color eye_color birth_year sex   gender
##    <chr>     <int> <dbl> <chr>      <chr>      <chr>          <dbl> <chr> <chr> 
##  1 Luke Sk…    172    77 blond      fair       blue            19   male  mascu…
##  2 C-3PO       167    75 <NA>       gold       yellow         112   none  mascu…
##  3 R2-D2        96    32 <NA>       white, bl… red             33   none  mascu…
##  4 Darth V…    202   136 none       white      yellow          41.9 male  mascu…
##  5 Leia Or…    150    49 brown      light      brown           19   fema… femin…
##  6 Owen La…    178   120 brown, gr… light      blue            52   male  mascu…
##  7 Beru Wh…    165    75 brown      light      blue            47   fema… femin…
##  8 R5-D4        97    32 <NA>       white, red red             NA   none  mascu…
##  9 Biggs D…    183    84 black      light      brown           24   male  mascu…
## 10 Obi-Wan…    182    77 auburn, w… fair       blue-gray       57   male  mascu…
## # ℹ 77 more rows
## # ℹ 5 more variables: homeworld <chr>, species <chr>, films <list>,
## #   vehicles <list>, starships <list>

Note that output now has 5 groups, though nothing different is seen in the displayed data.

This operation/verb is thus more useful if used in combination with other verbs.

Example-1: How many total characters are with same skin_color?

starwars %>% 
  select(name, skin_color) %>% 
  group_by(skin_color) %>% 
  mutate(total_with_s_c = n())

## # A tibble: 87 × 3
## # Groups:   skin_color [31]
##    name               skin_color  total_with_s_c
##    <chr>              <chr>                <int>
##  1 Luke Skywalker     fair                    17
##  2 C-3PO              gold                     1
##  3 R2-D2              white, blue              2
##  4 Darth Vader        white                    2
##  5 Leia Organa        light                   11
##  6 Owen Lars          light                   11
##  7 Beru Whitesun Lars light                   11
##  8 R5-D4              white, red               1
##  9 Biggs Darklighter  light                   11
## 10 Obi-Wan Kenobi     fair                    17
## # ℹ 77 more rows
…
##   val row min_rank dense_rank perc_rank cume_dist
## 1  10   1        4          3 1.0000000      1.00
## 2   2   2        1          1 0.0000000      0.50
## 3   3   3        3          2 0.6666667      0.75
## 4   2   4        1          1 0.0000000      0.50
## 5  NA   5       NA         NA        NA        NA

Example-2: Using previous and next values

Orange %>% 
  group_by(Tree) %>% 
  mutate(prev_circ = lag(circumference),
         next_circ = lead(circumference))

## # A tibble: 35 × 5
## # Groups:   Tree [5]
##    Tree    age circumference prev_circ next_circ
##    <ord> <dbl>         <dbl>     <dbl>     <dbl>
##  1 1       118            30        NA        58
##  2 1       484            58        30        87
##  3 1       664            87        58       115
##  4 1      1004           115        87       120
##  5 1      1231           120       115       142
##  6 1      1372           142       120       145
##  7 1      1582           145       142        NA
##  8 2       118            33        NA        69
##  9 2       484            69        33       111
## 10 2       664           111        69       156
## # ℹ 25 more rows
…
##         date price
## 1 2020-01-01 75.12
## 2 2020-01-20 78.32

# Use tidyr::complete to see explicit missing values
df %>% 
  complete(date = seq.Date(as.Date("2020-01-01"), as.Date("2020-01-31"), by = "day"))

## # A tibble: 31 × 2
##    date       price
##    <date>     <dbl>
##  1 2020-01-01  75.1
##  2 2020-01-02  NA  
##  3 2020-01-03  NA  
##  4 2020-01-04  NA  
##  5 2020-01-05  NA  
##  6 2020-01-06  NA  
##  7 2020-01-07  NA  
##  8 2020-01-08  NA  
##  9 2020-01-09  NA  
## 10 2020-01-10  NA  
## # ℹ 21 more rows
…
iris %>% 
  count(Species)

##      Species  n
## 1     setosa 50
## 2 versicolor 50
## 3  virginica 50

We can generate counts of multiple combinations of variables

ggplot2::diamonds %>% 
  count(cut, color, name = "count")

## # A tibble: 35 × 3
##    cut   color count
##    <ord> <ord> <int>
##  1 Fair  D       163
##  2 Fair  E       224
##  3 Fair  F       312
##  4 Fair  G       314
##  5 Fair  H       303
##  6 Fair  I       175
##  7 Fair  J       119
##  8 Good  D       662
##  9 Good  E       933
## 10 Good  F       909
## # ℹ 25 more rows
…
We may extract any of the as per requirement. E.g.

lin_reg1$coefficients

##  (Intercept) Sepal.Length 
##   -0.5694327    0.7985283

There is a package broom which uses tidy fundamentals to returns all the useful information by a single function augment.

library(broom)
augment(lin_reg1)

## # A tibble: 50 × 8
##    Sepal.Width Sepal.Length .fitted   .resid   .hat .sigma    .cooksd .std.resid
##          <dbl>        <dbl>   <dbl>    <dbl>  <dbl>  <dbl>      <dbl>      <dbl>
##  1         3.5          5.1    3.50 -0.00306 0.0215  0.259 0.00000160    -0.0121
##  2         3            4.9    3.34 -0.343   0.0218  0.254 0.0205        -1.35  
##  3         3.2          4.7    3.18  0.0163  0.0354  0.259 0.0000772      0.0649
##  4         3.1          4.6    3.10 -0.00380 0.0471  0.259 0.00000568    -0.0152
##  5         3.6          5      3.42  0.177   0.0200  0.258 0.00495        0.696 
##  6         3.9          5.4    3.74  0.157   0.0455  0.258 0.00940        0.628 
##  7         3.4          4.6    3.10  0.296   0.0471  0.255 0.0346         1.18  
##  8         3.4          5      3.42 -0.0232  0.0200  0.259 0.0000853     -0.0914
##  9         2.9          4.4    2.94 -0.0441  0.0803  0.259 0.00140       -0.179 
## 10         3.1          4.9    3.34 -0.243   0.0218  0.257 0.0103        -0.959 
## # ℹ 40 more rows
…
Step-1: First we have to ensure that all the ID columns (Store names of these columns in one vector say id_cols) must be of same type. Since we had a mix of character (Alphanumeric) and numeric IDs, using dplyr::across with dplyr::mutate we can convert all the three ID columns to character type. Readers may refer to section @ref(vectors) for type change, and section @ref(across) for changing data type of multiple columns simultaneously using dplyr::across.

Thus, first two lines of code above correspond to this step only.

id_cols <- c("ID1", "ID2", "ID3")
dat %>%
  mutate(across(.cols = id_cols, as.character))

Step-2: Pivot all id columns to longer format so that all Ids are linked with one main ID. Now two things should be kept in mind. One that there should be a main_Id column in the data frame. If not create one using dplyr::row_number() before pivoting. Secondly, if there are NAs in any of the IDs these have to be removed while pivoting. Use argument values_drop_na = TRUE inside the tidyr::pivot_longer. Thus, this step will correspond to this line-

pivot_longer(cols = all_of(id_cols), values_drop_na = TRUE)

where - first argument data is invisibly passed through dplyr pipe i.e. %>%. Upto this step, our data frame will look like -

## # A tibble: 27 × 4
##    MainID Name  name  value
##     <int> <chr> <chr> <chr>
##  1      1 A     ID1   11   
##  2      1 A     ID2   1a   
##  3      1 A     ID3   AB   
##  4      2 B     ID1   12   
##  5      2 B     ID2   1b   
##  6      2 B     ID3   AB   
##  7      3 C     ID1   13   
##  8      3 C     ID2   1b   
##  9      3 C     ID3   BC   
## 10      4 B     ID1   13   
## # ℹ 17 more rows
…
sunspot_df <- sunspot.month %>%
  as.data.frame() %>%
  set_names("value") %>%
  mutate(date = date_sequence)

library(timetk)
sunspot_df %>% 
  plot_anomaly_diagnostics(date, value,
                           .interactive = FALSE) 

sunspot_df %>% 
  tk_anomaly_diagnostics(date, value) %>% 
  filter(anomaly == 'Yes')

## # A tibble: 37 × 11
##    date       observed season trend remainder seasadj remainder_l1 remainder_l2
##    <date>        <dbl>  <dbl> <dbl>     <dbl>   <dbl>        <dbl>        <dbl>
##  1 1749-11-01     159. -1.07   76.3      83.4    160.        -64.8         66.7
##  2 1769-09-01     149. -0.524  78.8      70.5    149.        -64.8         66.7
##  3 1769-10-01     158.  1.17   79.3      77.7    157.        -64.8         66.7
##  4 1769-11-01     148. -1.07   79.8      69.4    149.        -64.8         66.7
##  5 1771-05-01     153.  0.963  77.5      74.3    152.        -64.8         66.7
##  6 1777-11-01     146  -1.07   75.7      71.4    147.        -64.8         66.7
##  7 1777-12-01     157. -0.495  77.8      80.0    158.        -64.8         66.7
##  8 1778-01-01     177. -2.18   79.9      99.6    179.        -64.8         66.7
##  9 1778-05-01     239.  0.963  87.3     151.     238.        -64.8         66.7
## 10 1778-06-01     172.  0.368  89.2      82.1    171.        -64.8         66.7
## # ℹ 27 more rows
## # ℹ 3 more variables: anomaly <chr>, recomposed_l1 <dbl>, recomposed_l2 <dbl>
…
