Chapter 40 Anomaly Detection | R for Audit Analytics
…
sunspot_df <- sunspot.month %>%
  as.data.frame() %>%
  set_names("value") %>%
  mutate(date = date_sequence)

library(timetk)
sunspot_df %>% 
  plot_anomaly_diagnostics(date, value,
                           .interactive = FALSE) 

sunspot_df %>% 
  tk_anomaly_diagnostics(date, value) %>% 
  filter(anomaly == 'Yes')

## # A tibble: 37 × 11
##    date       observed season trend remainder seasadj remainder_l1 remainder_l2
##    <date>        <dbl>  <dbl> <dbl>     <dbl>   <dbl>        <dbl>        <dbl>
##  1 1749-11-01     159. -1.07   76.3      83.4    160.        -64.8         66.7
##  2 1769-09-01     149. -0.524  78.8      70.5    149.        -64.8         66.7
##  3 1769-10-01     158.  1.17   79.3      77.7    157.        -64.8         66.7
##  4 1769-11-01     148. -1.07   79.8      69.4    149.        -64.8         66.7
##  5 1771-05-01     153.  0.963  77.5      74.3    152.        -64.8         66.7
##  6 1777-11-01     146  -1.07   75.7      71.4    147.        -64.8         66.7
##  7 1777-12-01     157. -0.495  77.8      80.0    158.        -64.8         66.7
##  8 1778-01-01     177. -2.18   79.9      99.6    179.        -64.8         66.7
##  9 1778-05-01     239.  0.963  87.3     151.     238.        -64.8         66.7
## 10 1778-06-01     172.  0.368  89.2      82.1    171.        -64.8         66.7
## # ℹ 27 more rows
## # ℹ 3 more variables: anomaly <chr>, recomposed_l1 <dbl>, recomposed_l2 <dbl>
…
