Chapter 27 Applying network analysis in audit/fraud detection | R for Audit Analytics
…
Step-1: First we have to ensure that all the ID columns (Store names of these columns in one vector say id_cols) must be of same type. Since we had a mix of character (Alphanumeric) and numeric IDs, using dplyr::across with dplyr::mutate we can convert all the three ID columns to character type. Readers may refer to section 1.4.1 for type change, and section 14.14 for changing data type of multiple columns simultaneously using dplyr::across.

Thus, first two lines of code above correspond to this step only.

id_cols <- c("ID1", "ID2", "ID3")
dat %>%
  mutate(across(.cols = id_cols, as.character))

Step-2: Pivot all id columns to longer format so that all Ids are linked with one main ID. Now two things should be kept in mind. One that there should be a main_Id column in the data frame. If not create one using dplyr::row_number() before pivoting. Secondly, if there are NAs in any of the IDs these have to be removed while pivoting. Use argument values_drop_na = TRUE inside the tidyr::pivot_longer. Thus, this step will correspond to this line-

pivot_longer(cols = all_of(id_cols), values_drop_na = TRUE)

where - first argument data is invisibly passed through dplyr pipe i.e. %>%. Upto this step, our data frame will look like -

## # A tibble: 27 × 4
##    MainID Name  name  value
##     <int> <chr> <chr> <chr>
##  1      1 A     ID1   11   
##  2      1 A     ID2   1a   
##  3      1 A     ID3   AB   
##  4      2 B     ID1   12   
##  5      2 B     ID2   1b   
##  6      2 B     ID3   AB   
##  7      3 C     ID1   13   
##  8      3 C     ID2   1b   
##  9      3 C     ID3   BC   
## 10      4 B     ID1   13   
## # ℹ 17 more rows
…
