Chapter 16 Data Wrangling in tidyr | R for Audit Analytics
…
##         date price
## 1 2020-01-01 75.12
## 2 2020-01-20 78.32

# Use tidyr::complete to see explicit missing values
df %>% 
  complete(date = seq.Date(as.Date("2020-01-01"), as.Date("2020-01-31"), by = "day"))

## # A tibble: 31 × 2
##    date       price
##    <date>     <dbl>
##  1 2020-01-01  75.1
##  2 2020-01-02  NA  
##  3 2020-01-03  NA  
##  4 2020-01-04  NA  
##  5 2020-01-05  NA  
##  6 2020-01-06  NA  
##  7 2020-01-07  NA  
##  8 2020-01-08  NA  
##  9 2020-01-09  NA  
## 10 2020-01-10  NA  
## # ℹ 21 more rows
…
