Chapter 14 Data Transformation in dplyr | R for Audit Analytics
…
ends_with('ABC') will select all columns the names of which ends with string ABC

contains('ABC') will select all columns the names of which contains string ABC

num_range('A', 1:3) will select all columns named A1, A2 and A3

Some Examples.

This syntax will select all columns which ends with "color" in column names.

starwars %>% 
  select(ends_with('color'))

## # A tibble: 87 × 3
##    hair_color    skin_color  eye_color
##    <chr>         <chr>       <chr>    
##  1 blond         fair        blue     
##  2 <NA>          gold        yellow   
##  3 <NA>          white, blue red      
##  4 none          white       yellow   
##  5 brown         light       brown    
##  6 brown, grey   light       blue     
##  7 brown         light       blue     
##  8 <NA>          white, red  red      
##  9 black         light       brown    
## 10 auburn, white fair        blue-gray
## # ℹ 77 more rows

Example-2: This syntax will select all columns contains characters "or" in column names.

starwars %>% 
  select(contains('or'))

## # A tibble: 87 × 4
##    hair_color    skin_color  eye_color homeworld
##    <chr>         <chr>       <chr>     <chr>    
##  1 blond         fair        blue      Tatooine 
##  2 <NA>          gold        yellow    Tatooine 
##  3 <NA>          white, blue red       Naboo    
##  4 none          white       yellow    Tatooine 
##  5 brown         light       brown     Alderaan 
##  6 brown, grey   light       blue      Tatooine 
##  7 brown         light       blue      Tatooine 
##  8 <NA>          white, red  red       Tatooine 
##  9 black         light       brown     Tatooine 
## 10 auburn, white fair        blue-gray Stewjon  
## # ℹ 77 more rows

Using where(): This selection helper selects the variables for which a function when applied to column names, returns TRUE.

Example-3: This syntax will select all numeric columns from the dataset.

starwars %>% 
  select(where(is.numeric))

## # A tibble: 87 × 3
##    height  mass birth_year
##     <int> <dbl>      <dbl>
##  1    172    77       19  
##  2    167    75      112  
##  3     96    32       33  
##  4    202   136       41.9
##  5    150    49       19  
##  6    178   120       52  
##  7    165    75       47  
##  8     97    32       NA  
##  9    183    84       24  
## 10    182    77       57  
## # ℹ 77 more rows
…
Figure 14.3: Illustration of dplyr::mutate()

More than one column can be added simultaneously. Newly created column may also be used for creation of another new column. See example.

starwars %>% 
  select(name:mass) %>% 
  mutate(name_upper = toupper(name),
         BMI = mass/(height/100)^2)

## # A tibble: 87 × 5
##    name               height  mass name_upper           BMI
##    <chr>               <int> <dbl> <chr>              <dbl>
##  1 Luke Skywalker        172    77 LUKE SKYWALKER      26.0
##  2 C-3PO                 167    75 C-3PO               26.9
##  3 R2-D2                  96    32 R2-D2               34.7
##  4 Darth Vader           202   136 DARTH VADER         33.3
##  5 Leia Organa           150    49 LEIA ORGANA         21.8
##  6 Owen Lars             178   120 OWEN LARS           37.9
##  7 Beru Whitesun Lars    165    75 BERU WHITESUN LARS  27.5
##  8 R5-D4                  97    32 R5-D4               34.0
##  9 Biggs Darklighter     183    84 BIGGS DARKLIGHTER   25.1
## 10 Obi-Wan Kenobi        182    77 OBI-WAN KENOBI      23.2
## # ℹ 77 more rows

By default the new column will be added to the last of data frame. As shown in above example, more operations can be combined in one using %>%. There is a cousin transmute() of mutate which drops all the old columns and keeps only newly created columns. Example

starwars %>% 
  transmute(name_upper = toupper(name))

## # A tibble: 87 × 1
##    name_upper        
##    <chr>             
##  1 LUKE SKYWALKER    
##  2 C-3PO             
##  3 R2-D2             
##  4 DARTH VADER       
##  5 LEIA ORGANA       
##  6 OWEN LARS         
##  7 BERU WHITESUN LARS
##  8 R5-D4             
##  9 BIGGS DARKLIGHTER 
## 10 OBI-WAN KENOBI    
## # ℹ 77 more rows
…
Figure 14.7: Illustration of Grouped Operations in dplyr

Note the output of this simple example

starwars %>% 
  group_by(sex)

## # A tibble: 87 × 14
## # Groups:   sex [5]
##    name     height  mass hair_color skin_color eye_color birth_year sex   gender
##    <chr>     <int> <dbl> <chr>      <chr>      <chr>          <dbl> <chr> <chr> 
##  1 Luke Sk…    172    77 blond      fair       blue            19   male  mascu…
##  2 C-3PO       167    75 <NA>       gold       yellow         112   none  mascu…
##  3 R2-D2        96    32 <NA>       white, bl… red             33   none  mascu…
##  4 Darth V…    202   136 none       white      yellow          41.9 male  mascu…
##  5 Leia Or…    150    49 brown      light      brown           19   fema… femin…
##  6 Owen La…    178   120 brown, gr… light      blue            52   male  mascu…
##  7 Beru Wh…    165    75 brown      light      blue            47   fema… femin…
##  8 R5-D4        97    32 <NA>       white, red red             NA   none  mascu…
##  9 Biggs D…    183    84 black      light      brown           24   male  mascu…
## 10 Obi-Wan…    182    77 auburn, w… fair       blue-gray       57   male  mascu…
## # ℹ 77 more rows
## # ℹ 5 more variables: homeworld <chr>, species <chr>, films <list>,
## #   vehicles <list>, starships <list>

Note that output now has 5 groups, though nothing different is seen in the displayed data.

This operation/verb is thus more useful if used in combination with other verbs.

Example-1: How many total characters are with same skin_color?

starwars %>% 
  select(name, skin_color) %>% 
  group_by(skin_color) %>% 
  mutate(total_with_s_c = n())

## # A tibble: 87 × 3
## # Groups:   skin_color [31]
##    name               skin_color  total_with_s_c
##    <chr>              <chr>                <int>
##  1 Luke Skywalker     fair                    17
##  2 C-3PO              gold                     1
##  3 R2-D2              white, blue              2
##  4 Darth Vader        white                    2
##  5 Leia Organa        light                   11
##  6 Owen Lars          light                   11
##  7 Beru Whitesun Lars light                   11
##  8 R5-D4              white, red               1
##  9 Biggs Darklighter  light                   11
## 10 Obi-Wan Kenobi     fair                    17
## # ℹ 77 more rows
…
##   val row min_rank dense_rank perc_rank cume_dist
## 1  10   1        4          3 1.0000000      1.00
## 2   2   2        1          1 0.0000000      0.50
## 3   3   3        3          2 0.6666667      0.75
## 4   2   4        1          1 0.0000000      0.50
## 5  NA   5       NA         NA        NA        NA

Example-2: Using previous and next values

Orange %>% 
  group_by(Tree) %>% 
  mutate(prev_circ = lag(circumference),
         next_circ = lead(circumference))

## # A tibble: 35 × 5
## # Groups:   Tree [5]
##    Tree    age circumference prev_circ next_circ
##    <ord> <dbl>         <dbl>     <dbl>     <dbl>
##  1 1       118            30        NA        58
##  2 1       484            58        30        87
##  3 1       664            87        58       115
##  4 1      1004           115        87       120
##  5 1      1231           120       115       142
##  6 1      1372           142       120       145
##  7 1      1582           145       142        NA
##  8 2       118            33        NA        69
##  9 2       484            69        33       111
## 10 2       664           111        69       156
## # ℹ 25 more rows
…
