Chapter 17 Generating Descriptive statistics | R for Audit Analytics
…
iris %>% 
  count(Species)

##      Species  n
## 1     setosa 50
## 2 versicolor 50
## 3  virginica 50

We can generate counts of multiple combinations of variables

ggplot2::diamonds %>% 
  count(cut, color, name = "count")

## # A tibble: 35 × 3
##    cut   color count
##    <ord> <ord> <int>
##  1 Fair  D       163
##  2 Fair  E       224
##  3 Fair  F       312
##  4 Fair  G       314
##  5 Fair  H       303
##  6 Fair  I       175
##  7 Fair  J       119
##  8 Good  D       662
##  9 Good  E       933
## 10 Good  F       909
## # ℹ 25 more rows
…
