Chapter 20 Linear Regression | R for Audit Analytics
…
We may extract any of the as per requirement. E.g.

lin_reg1$coefficients

##  (Intercept) Sepal.Length 
##   -0.5694327    0.7985283

There is a package broom which uses tidy fundamentals to returns all the useful information by a single function augment.

library(broom)
augment(lin_reg1)

## # A tibble: 50 × 8
##    Sepal.Width Sepal.Length .fitted   .resid   .hat .sigma    .cooksd .std.resid
##          <dbl>        <dbl>   <dbl>    <dbl>  <dbl>  <dbl>      <dbl>      <dbl>
##  1         3.5          5.1    3.50 -0.00306 0.0215  0.259 0.00000160    -0.0121
##  2         3            4.9    3.34 -0.343   0.0218  0.254 0.0205        -1.35  
##  3         3.2          4.7    3.18  0.0163  0.0354  0.259 0.0000772      0.0649
##  4         3.1          4.6    3.10 -0.00380 0.0471  0.259 0.00000568    -0.0152
##  5         3.6          5      3.42  0.177   0.0200  0.258 0.00495        0.696 
##  6         3.9          5.4    3.74  0.157   0.0455  0.258 0.00940        0.628 
##  7         3.4          4.6    3.10  0.296   0.0471  0.255 0.0346         1.18  
##  8         3.4          5      3.42 -0.0232  0.0200  0.259 0.0000853     -0.0914
##  9         2.9          4.4    2.94 -0.0441  0.0803  0.259 0.00140       -0.179 
## 10         3.1          4.9    3.34 -0.243   0.0218  0.257 0.0103        -0.959 
## # ℹ 40 more rows
…
